EESchema Schematic File Version 4
EELAYER 30 0
EELAYER END
$Descr A4 11693 8268
encoding utf-8
Sheet 1 1
Title "ESP32 IDF home automation"
Date "2020-08-29"
Rev "1"
Comp "Victor Lamoine"
Comment1 ""
Comment2 ""
Comment3 ""
Comment4 ""
$EndDescr
$Comp
L Device:R_PHOTO R1
U 1 1 5F4A241A
P 9200 5150
F 0 "R1" H 9270 5196 50  0000 L CNN
F 1 "R_PHOTO" H 9270 5105 50  0000 L CNN
F 2 "Resistor_THT:R_Axial_DIN0204_L3.6mm_D1.6mm_P5.08mm_Horizontal" V 9250 4900 50  0001 L CNN
F 3 "~" H 9200 5100 50  0001 C CNN
	1    9200 5150
	1    0    0    -1  
$EndComp
$Comp
L Device:R R2
U 1 1 5F4A2933
P 9200 5550
F 0 "R2" H 9130 5504 50  0000 R CNN
F 1 "15k" H 9130 5595 50  0000 R CNN
F 2 "Resistor_THT:R_Axial_DIN0207_L6.3mm_D2.5mm_P10.16mm_Horizontal" V 9130 5550 50  0001 C CNN
F 3 "~" H 9200 5550 50  0001 C CNN
	1    9200 5550
	-1   0    0    1   
$EndComp
$Comp
L Converter_ACDC:HLK-PM01 PS1
U 1 1 5F4A4C2F
P 2550 1950
F 0 "PS1" H 2550 2275 50  0000 C CNN
F 1 "HLK-PM01" H 2550 2184 50  0000 C CNN
F 2 "Converter_ACDC:Converter_ACDC_HiLink_HLK-PMxx" H 2550 1650 50  0001 C CNN
F 3 "http://www.hlktech.net/product_detail.php?ProId=54" H 2950 1600 50  0001 C CNN
	1    2550 1950
	1    0    0    -1  
$EndComp
$Comp
L Connector:Screw_Terminal_01x02 J1
U 1 1 5F4A5934
P 1650 1900
F 0 "J1" H 1750 1850 50  0000 C CNN
F 1 "Screw_Terminal_01x02" H 1750 1700 50  0000 C CNN
F 2 "KF301-5.0:kf301-5.0-2p_P5.08mm" H 1650 1900 50  0001 C CNN
F 3 "~" H 1650 1900 50  0001 C CNN
	1    1650 1900
	-1   0    0    -1  
$EndComp
Wire Wire Line
	2150 1900 2150 1850
Wire Wire Line
	2150 2000 2150 2050
Wire Wire Line
	2950 1850 2950 1800
Wire Wire Line
	2950 2050 2950 1900
Wire Wire Line
	2950 1900 3250 1900
NoConn ~ 3400 1600
Text Label 3400 1700 2    50   ~ 0
battery_sense
Wire Wire Line
	6200 5450 6300 5450
$Comp
L power:GND #PWR0101
U 1 1 5F4B410C
P 6300 5500
F 0 "#PWR0101" H 6300 5250 50  0001 C CNN
F 1 "GND" H 6305 5327 50  0000 C CNN
F 2 "" H 6300 5500 50  0001 C CNN
F 3 "" H 6300 5500 50  0001 C CNN
	1    6300 5500
	1    0    0    -1  
$EndComp
$Comp
L power:GND #PWR0102
U 1 1 5F4B5023
P 9600 1800
F 0 "#PWR0102" H 9600 1550 50  0001 C CNN
F 1 "GND" H 9605 1627 50  0000 C CNN
F 2 "" H 9600 1800 50  0001 C CNN
F 3 "" H 9600 1800 50  0001 C CNN
	1    9600 1800
	1    0    0    -1  
$EndComp
$Comp
L power:GND #PWR0103
U 1 1 5F4B55CE
P 9550 3700
F 0 "#PWR0103" H 9550 3450 50  0001 C CNN
F 1 "GND" H 9555 3527 50  0000 C CNN
F 2 "" H 9550 3700 50  0001 C CNN
F 3 "" H 9550 3700 50  0001 C CNN
	1    9550 3700
	1    0    0    -1  
$EndComp
Wire Wire Line
	3250 1900 3250 2150
Connection ~ 3250 1900
Wire Wire Line
	3250 1900 3500 1900
$Comp
L power:GND #PWR0104
U 1 1 5F4C6F4E
P 3250 2150
F 0 "#PWR0104" H 3250 1900 50  0001 C CNN
F 1 "GND" H 3255 1977 50  0000 C CNN
F 2 "" H 3250 2150 50  0001 C CNN
F 3 "" H 3250 2150 50  0001 C CNN
	1    3250 2150
	1    0    0    -1  
$EndComp
$Comp
L Connector:Conn_01x15_Female J2
U 1 1 5F4CDD44
P 2300 6500
F 0 "J2" H 2328 6526 50  0000 L CNN
F 1 "Conn_01x15_Female" H 1800 7350 50  0000 L CNN
F 2 "Connector_PinHeader_2.54mm:PinHeader_1x15_P2.54mm_Vertical" H 2300 6500 50  0001 C CNN
F 3 "~" H 2300 6500 50  0001 C CNN
	1    2300 6500
	1    0    0    -1  
$EndComp
Wire Wire Line
	9200 5300 9200 5350
$Comp
L power:GND #PWR0105
U 1 1 5F4DA5C5
P 9200 5750
F 0 "#PWR0105" H 9200 5500 50  0001 C CNN
F 1 "GND" H 9205 5577 50  0000 C CNN
F 2 "" H 9200 5750 50  0001 C CNN
F 3 "" H 9200 5750 50  0001 C CNN
	1    9200 5750
	1    0    0    -1  
$EndComp
Wire Notes Line
	2550 1150 2550 2400
Wire Notes Line
	2550 2400 1050 2400
Wire Notes Line
	1050 2400 1050 1150
Wire Notes Line
	1050 1150 2550 1150
Text Notes 1100 1250 0    50   ~ 10
DANGER ! High voltage AC
$Comp
L Connector_Generic:Conn_01x04 J3
U 1 1 5F4ED766
P 2250 3250
F 0 "J3" H 2330 3242 50  0000 L CNN
F 1 "Conn_01x04" H 2330 3151 50  0000 L CNN
F 2 "Connector_PinHeader_2.54mm:PinHeader_1x04_P2.54mm_Vertical" H 2250 3250 50  0001 C CNN
F 3 "~" H 2250 3250 50  0001 C CNN
	1    2250 3250
	1    0    0    -1  
$EndComp
$Comp
L Connector_Generic:Conn_01x04 J4
U 1 1 5F4EE444
P 2250 3700
F 0 "J4" H 2330 3692 50  0000 L CNN
F 1 "Conn_01x04" H 2330 3601 50  0000 L CNN
F 2 "Connector_PinHeader_2.54mm:PinHeader_1x04_P2.54mm_Vertical" H 2250 3700 50  0001 C CNN
F 3 "~" H 2250 3700 50  0001 C CNN
	1    2250 3700
	1    0    0    -1  
$EndComp
$Comp
L Connector_Generic:Conn_01x04 J5
U 1 1 5F4EE93D
P 2250 4150
F 0 "J5" H 2330 4142 50  0000 L CNN
F 1 "Conn_01x04" H 2330 4051 50  0000 L CNN
F 2 "Connector_PinHeader_2.54mm:PinHeader_1x04_P2.54mm_Vertical" H 2250 4150 50  0001 C CNN
F 3 "~" H 2250 4150 50  0001 C CNN
	1    2250 4150
	1    0    0    -1  
$EndComp
Wire Wire Line
	2050 4050 2050 4150
Connection ~ 2050 4150
Wire Wire Line
	2050 4150 2050 4250
Connection ~ 2050 4250
Wire Wire Line
	2050 4250 2050 4350
Connection ~ 2050 3700
Wire Wire Line
	2050 3700 2050 3600
Connection ~ 2050 3800
Wire Wire Line
	2050 3800 2050 3700
Wire Wire Line
	2050 3450 2050 3350
Connection ~ 2050 3250
Wire Wire Line
	2050 3250 2050 3150
Connection ~ 2050 3350
Wire Wire Line
	2050 3350 2050 3250
Text GLabel 1900 3250 0    50   Input ~ 0
VIN
Wire Wire Line
	1900 3250 2050 3250
$Comp
L power:GND #PWR0106
U 1 1 5F4F6596
P 1900 4150
F 0 "#PWR0106" H 1900 3900 50  0001 C CNN
F 1 "GND" H 1905 3977 50  0000 C CNN
F 2 "" H 1900 4150 50  0001 C CNN
F 3 "" H 1900 4150 50  0001 C CNN
	1    1900 4150
	1    0    0    -1  
$EndComp
Wire Wire Line
	1900 4150 2050 4150
Text GLabel 3400 2150 3    50   Input ~ 0
VIN
Wire Wire Line
	2950 1800 3400 1800
Wire Wire Line
	3400 2150 3400 1800
Connection ~ 3400 1800
Wire Wire Line
	3400 1800 3500 1800
Text GLabel 6450 2350 2    50   Input ~ 0
VIN
Wire Wire Line
	6450 2350 6200 2350
Wire Wire Line
	6200 2350 6200 2650
Wire Wire Line
	6300 2500 6300 2650
Text Label 3500 6000 2    50   ~ 0
P23
Text Label 3500 6100 2    50   ~ 0
P24
Text Label 3300 6200 2    50   ~ 0
motion
Text Label 3500 6300 2    50   ~ 0
P27
Text Label 3500 6400 2    50   ~ 0
P28
Text Label 3500 6500 2    50   ~ 0
P29
Text Label 3500 6600 2    50   ~ 0
P30
Text Label 3500 6700 2    50   ~ 0
P31
Text Label 3250 6800 2    50   ~ 0
SDA
Text Label 3500 6900 2    50   ~ 0
P34
Text Label 3500 7000 2    50   ~ 0
P35
Text Label 3250 7100 2    50   ~ 0
SCL
Text Label 3500 7200 2    50   ~ 0
P37
Text Label 2050 5800 2    50   ~ 0
P3
Text Label 2050 5900 2    50   ~ 0
P4
Text Label 2050 6000 2    50   ~ 0
P5
Text Label 1850 6100 2    50   ~ 0
photo_resistor
Text Label 2050 6200 2    50   ~ 0
P7
Text Label 2050 6300 2    50   ~ 0
P8
Text Label 1850 6400 2    50   ~ 0
battery_sense
Text Label 2050 6500 2    50   ~ 0
P10
Text Label 2050 6600 2    50   ~ 0
P11
Text Label 2050 6700 2    50   ~ 0
P12
Text Label 2050 6800 2    50   ~ 0
P13
Text Label 2050 6900 2    50   ~ 0
P14
Text Label 2050 7000 2    50   ~ 0
P16
Text Label 7100 3050 0    50   ~ 0
P24
Wire Wire Line
	6900 3050 7100 3050
Wire Wire Line
	6900 2950 7100 2950
Wire Wire Line
	6900 3150 7100 3150
Wire Wire Line
	6900 3250 7300 3250
Wire Wire Line
	6900 3350 7100 3350
Wire Wire Line
	6900 3450 7100 3450
Wire Wire Line
	6900 3550 7100 3550
Wire Wire Line
	6900 3650 7100 3650
Wire Wire Line
	6900 3750 7100 3750
Wire Wire Line
	6900 3850 7100 3850
Wire Wire Line
	6900 3950 7100 3950
Wire Wire Line
	6900 4050 7100 4050
Wire Wire Line
	6900 4150 7100 4150
Wire Wire Line
	6900 4450 7100 4450
Wire Wire Line
	6900 4550 7100 4550
Wire Wire Line
	6900 4650 7100 4650
Wire Wire Line
	6900 4750 7100 4750
Wire Wire Line
	6900 4850 7100 4850
Wire Wire Line
	6900 4950 7250 4950
Wire Wire Line
	6900 5150 7100 5150
Wire Wire Line
	5700 2850 5500 2850
Wire Wire Line
	5700 3050 5500 3050
Wire Wire Line
	5700 3150 5500 3150
Text Label 7100 2950 0    50   ~ 0
P35
Text Label 7100 3150 0    50   ~ 0
P34
Text Label 7300 3250 0    50   ~ 0
motion
Text Label 7100 3350 0    50   ~ 0
P29
Text Label 7100 3450 0    50   ~ 0
P14
Text Label 7100 3550 0    50   ~ 0
P16
Text Label 7100 3650 0    50   ~ 0
P13
Text Label 7100 3750 0    50   ~ 0
P23
Text Label 7100 3850 0    50   ~ 0
P27
Text Label 7100 3950 0    50   ~ 0
P28
Text Label 7100 4050 0    50   ~ 0
P30
Text Label 7100 4150 0    50   ~ 0
P31
Text Label 7100 4450 0    50   ~ 0
P37
Text Label 7100 4550 0    50   ~ 0
P10
Text Label 7100 4650 0    50   ~ 0
P11
Text Label 7100 4750 0    50   ~ 0
P12
Text Label 7100 4850 0    50   ~ 0
P8
Text Label 7250 4950 0    50   ~ 0
battery_sense
Text Label 7100 5150 0    50   ~ 0
P7
Text Label 5500 2850 2    50   ~ 0
P3
Text Label 5500 3050 2    50   ~ 0
P4
Text Label 5500 3150 2    50   ~ 0
P5
Wire Notes Line
	1250 2850 3000 2850
Wire Notes Line
	3000 2850 3000 4500
Wire Notes Line
	3000 4500 1250 4500
Wire Notes Line
	1250 4500 1250 2850
Text Notes 1300 2950 0    50   ~ 0
Power pins for other sensors
Wire Notes Line
	1150 5400 4300 5400
Wire Notes Line
	4300 5400 4300 7350
Wire Notes Line
	4300 7350 1150 7350
Wire Notes Line
	1150 7350 1150 5400
Text Notes 1150 5500 0    50   ~ 0
Pin headers to test, add sensors etc.
Wire Notes Line
	8750 800  10200 800 
Wire Notes Line
	10200 800  10200 2050
Wire Notes Line
	10200 2050 8750 2050
Wire Notes Line
	8750 2050 8750 800 
Text Notes 8800 900  0    50   ~ 0
Humidity and temperature
Wire Notes Line
	10300 2800 10300 3950
Wire Notes Line
	10300 3950 8700 3950
Wire Notes Line
	8700 3950 8700 2800
Wire Notes Line
	8700 2800 10300 2800
Text Notes 8750 2950 0    50   ~ 0
PIR motion
Wire Notes Line
	8950 4550 10050 4550
Wire Notes Line
	10050 4550 10050 6000
Wire Notes Line
	10050 6000 8950 6000
Wire Notes Line
	8950 6000 8950 4550
Text Notes 9000 4650 0    50   ~ 0
Photo resistor
Wire Notes Line
	900  850  4800 850 
Wire Notes Line
	4800 850  4800 2450
Wire Notes Line
	4800 2450 900  2450
Wire Notes Line
	900  2450 900  850 
Text Notes 1000 950  0    50   ~ 0
Power / batteries
Text Label 10000 1400 0    50   ~ 0
SCL
Text Label 10000 1600 0    50   ~ 0
SDA
Text Label 9950 3400 0    50   ~ 0
motion
Text Label 9400 5350 0    50   ~ 0
photo_resistor
Wire Wire Line
	9400 5350 9200 5350
Connection ~ 9200 5350
Wire Wire Line
	9200 5350 9200 5400
Wire Wire Line
	9900 3400 9950 3400
Wire Wire Line
	9550 3100 9550 3050
Wire Wire Line
	10000 1400 9950 1400
Wire Wire Line
	9950 1600 10000 1600
Wire Wire Line
	9200 4950 9200 5000
Wire Wire Line
	9200 5700 9200 5750
Wire Wire Line
	2100 5800 2050 5800
Wire Wire Line
	2100 5900 2050 5900
Wire Wire Line
	2100 6000 2050 6000
Wire Wire Line
	2100 6100 1850 6100
Wire Wire Line
	2100 6200 2050 6200
Wire Wire Line
	2100 6300 2050 6300
Wire Wire Line
	2100 6400 1850 6400
Wire Wire Line
	2100 6500 2050 6500
Wire Wire Line
	2100 6600 2050 6600
Wire Wire Line
	2100 6700 2050 6700
Wire Wire Line
	2100 6800 2050 6800
Wire Wire Line
	2100 6900 2050 6900
Wire Wire Line
	2100 7000 2050 7000
Text Label 7300 4250 0    50   ~ 0
SDA
Text Label 7300 4350 0    50   ~ 0
SCL
Wire Wire Line
	6900 4250 7300 4250
Wire Wire Line
	6900 4350 7300 4350
Text Label 7250 5050 0    50   ~ 0
photo_resistor
Wire Wire Line
	6900 5050 7250 5050
Wire Wire Line
	3550 6600 3500 6600
Wire Wire Line
	3550 6500 3500 6500
Wire Wire Line
	3550 6400 3500 6400
Wire Wire Line
	3550 6300 3500 6300
Wire Wire Line
	3550 6200 3300 6200
Wire Wire Line
	3550 6100 3500 6100
Wire Wire Line
	3550 6000 3500 6000
Wire Wire Line
	3550 7200 3500 7200
Wire Wire Line
	3550 7100 3250 7100
Wire Wire Line
	3550 7000 3500 7000
Wire Wire Line
	3550 6900 3500 6900
Wire Wire Line
	3550 6800 3250 6800
Wire Wire Line
	3550 6700 3500 6700
$Comp
L Connector:Conn_01x15_Female J6
U 1 1 5F4CC97E
P 3750 6500
F 0 "J6" H 3778 6526 50  0000 L CNN
F 1 "Conn_01x15_Female" H 3250 7350 50  0000 L CNN
F 2 "Connector_PinHeader_2.54mm:PinHeader_1x15_P2.54mm_Vertical" H 3750 6500 50  0001 C CNN
F 3 "~" H 3750 6500 50  0001 C CNN
	1    3750 6500
	1    0    0    -1  
$EndComp
Text GLabel 1850 7200 0    50   Input ~ 0
VIN
Wire Wire Line
	1850 7200 2100 7200
$Comp
L power:GND #PWR0109
U 1 1 5F7AC436
P 2850 5900
F 0 "#PWR0109" H 2850 5650 50  0001 C CNN
F 1 "GND" H 2855 5727 50  0000 C CNN
F 2 "" H 2850 5900 50  0001 C CNN
F 3 "" H 2850 5900 50  0001 C CNN
	1    2850 5900
	1    0    0    -1  
$EndComp
Wire Wire Line
	2850 5900 3550 5900
Wire Wire Line
	1350 7100 2100 7100
$Comp
L power:GND #PWR0110
U 1 1 5F7BF92C
P 1350 7100
F 0 "#PWR0110" H 1350 6850 50  0001 C CNN
F 1 "GND" H 1355 6927 50  0000 C CNN
F 2 "" H 1350 7100 50  0001 C CNN
F 3 "" H 1350 7100 50  0001 C CNN
	1    1350 7100
	1    0    0    -1  
$EndComp
Wire Wire Line
	6300 5500 6300 5450
Wire Wire Line
	9600 1150 9600 1200
$Comp
L power:+3V3 #PWR0111
U 1 1 5F8B2A14
P 6850 2500
F 0 "#PWR0111" H 6850 2350 50  0001 C CNN
F 1 "+3V3" H 6865 2673 50  0000 C CNN
F 2 "" H 6850 2500 50  0001 C CNN
F 3 "" H 6850 2500 50  0001 C CNN
	1    6850 2500
	1    0    0    -1  
$EndComp
$Comp
L power:+3V3 #PWR0112
U 1 1 5F8B7D89
P 3100 5800
F 0 "#PWR0112" H 3100 5650 50  0001 C CNN
F 1 "+3V3" H 3115 5973 50  0000 C CNN
F 2 "" H 3100 5800 50  0001 C CNN
F 3 "" H 3100 5800 50  0001 C CNN
	1    3100 5800
	1    0    0    -1  
$EndComp
Wire Wire Line
	3100 5800 3550 5800
$Comp
L power:+3V3 #PWR0113
U 1 1 5F8BEC8C
P 9550 3050
F 0 "#PWR0113" H 9550 2900 50  0001 C CNN
F 1 "+3V3" H 9565 3223 50  0000 C CNN
F 2 "" H 9550 3050 50  0001 C CNN
F 3 "" H 9550 3050 50  0001 C CNN
	1    9550 3050
	1    0    0    -1  
$EndComp
$Comp
L power:+3V3 #PWR0114
U 1 1 5F8BF8F1
P 9600 1150
F 0 "#PWR0114" H 9600 1000 50  0001 C CNN
F 1 "+3V3" H 9615 1323 50  0000 C CNN
F 2 "" H 9600 1150 50  0001 C CNN
F 3 "" H 9600 1150 50  0001 C CNN
	1    9600 1150
	1    0    0    -1  
$EndComp
Wire Wire Line
	6300 2500 6850 2500
$Comp
L power:+3V3 #PWR0115
U 1 1 5F8C6D9D
P 9200 4950
F 0 "#PWR0115" H 9200 4800 50  0001 C CNN
F 1 "+3V3" H 9215 5123 50  0000 C CNN
F 2 "" H 9200 4950 50  0001 C CNN
F 3 "" H 9200 4950 50  0001 C CNN
	1    9200 4950
	1    0    0    -1  
$EndComp
Wire Wire Line
	1900 3700 2050 3700
$Comp
L power:+3V3 #PWR0116
U 1 1 5F8C8640
P 1900 3700
F 0 "#PWR0116" H 1900 3550 50  0001 C CNN
F 1 "+3V3" H 1915 3873 50  0000 C CNN
F 2 "" H 1900 3700 50  0001 C CNN
F 3 "" H 1900 3700 50  0001 C CNN
	1    1900 3700
	1    0    0    -1  
$EndComp
Wire Wire Line
	2050 3900 2050 3800
$Comp
L power:PWR_FLAG #FLG0101
U 1 1 5F8DD3B6
P 6900 900
F 0 "#FLG0101" H 6900 975 50  0001 C CNN
F 1 "PWR_FLAG" H 6900 1073 50  0000 C CNN
F 2 "" H 6900 900 50  0001 C CNN
F 3 "~" H 6900 900 50  0001 C CNN
	1    6900 900 
	1    0    0    -1  
$EndComp
$Comp
L power:+3V3 #PWR0107
U 1 1 5F8DDC5B
P 6900 950
F 0 "#PWR0107" H 6900 800 50  0001 C CNN
F 1 "+3V3" H 6915 1123 50  0000 C CNN
F 2 "" H 6900 950 50  0001 C CNN
F 3 "" H 6900 950 50  0001 C CNN
	1    6900 950 
	-1   0    0    1   
$EndComp
$Comp
L power:PWR_FLAG #FLG0103
U 1 1 5F8E9FB0
P 6000 900
F 0 "#FLG0103" H 6000 975 50  0001 C CNN
F 1 "PWR_FLAG" H 6000 1073 50  0000 C CNN
F 2 "" H 6000 900 50  0001 C CNN
F 3 "~" H 6000 900 50  0001 C CNN
	1    6000 900 
	1    0    0    -1  
$EndComp
$Comp
L power:AC #PWR0108
U 1 1 5F8EEEF7
P 2050 1700
F 0 "#PWR0108" H 2050 1600 50  0001 C CNN
F 1 "AC" H 2050 1975 50  0000 C CNN
F 2 "" H 2050 1700 50  0001 C CNN
F 3 "" H 2050 1700 50  0001 C CNN
	1    2050 1700
	1    0    0    -1  
$EndComp
Wire Wire Line
	2050 1700 2050 1900
Wire Wire Line
	2050 1900 2150 1900
$Comp
L power:NEUT #PWR0117
U 1 1 5F8F3366
P 2050 2100
F 0 "#PWR0117" H 2050 1950 50  0001 C CNN
F 1 "NEUT" H 2065 2273 50  0000 C CNN
F 2 "" H 2050 2100 50  0001 C CNN
F 3 "" H 2050 2100 50  0001 C CNN
	1    2050 2100
	-1   0    0    1   
$EndComp
$Comp
L power:NEUT #PWR0119
U 1 1 5F8F8641
P 6000 950
F 0 "#PWR0119" H 6000 800 50  0001 C CNN
F 1 "NEUT" H 6015 1123 50  0000 C CNN
F 2 "" H 6000 950 50  0001 C CNN
F 3 "" H 6000 950 50  0001 C CNN
	1    6000 950 
	-1   0    0    1   
$EndComp
Wire Wire Line
	6000 900  6000 950 
Wire Wire Line
	6900 900  6900 950 
$Comp
L power:AC #PWR0118
U 1 1 5F938339
P 6450 950
F 0 "#PWR0118" H 6450 850 50  0001 C CNN
F 1 "AC" H 6450 1225 50  0000 C CNN
F 2 "" H 6450 950 50  0001 C CNN
F 3 "" H 6450 950 50  0001 C CNN
	1    6450 950 
	-1   0    0    1   
$EndComp
$Comp
L power:PWR_FLAG #FLG0102
U 1 1 5F942199
P 6450 900
F 0 "#FLG0102" H 6450 975 50  0001 C CNN
F 1 "PWR_FLAG" H 6450 1073 50  0000 C CNN
F 2 "" H 6450 900 50  0001 C CNN
F 3 "~" H 6450 900 50  0001 C CNN
	1    6450 900 
	1    0    0    -1  
$EndComp
Wire Wire Line
	6450 900  6450 950 
$Comp
L ESP32_DevKit_V1_DOIT:ESP32_DevKit_V1_DOIT U1
U 1 1 5F96CB51
P 6300 4050
F 0 "U1" H 5850 5400 50  0000 C CNN
F 1 "ESP32_DevKit_V1_DOIT" H 6800 5400 50  0000 C CNN
F 2 "ESP32_DevKit_V1_DOIT:esp32_devkit_v1_doit" H 5850 5400 50  0001 C CNN
F 3 "https://aliexpress.com/item/32864722159.html" H 5850 5400 50  0001 C CNN
	1    6300 4050
	1    0    0    -1  
$EndComp
Connection ~ 6300 5450
$Comp
L AHT10_breakout:AHT10_breakout U3
U 1 1 5F97012D
P 9600 1500
F 0 "U3" H 9372 1546 50  0000 R CNN
F 1 "AHT10_breakout" H 9372 1455 50  0000 R CNN
F 2 "AHT10_breakout:aht10_breakout" H 9600 1150 50  0001 C CNN
F 3 "" H 9600 1500 50  0001 C CNN
	1    9600 1500
	1    0    0    -1  
$EndComp
$Comp
L AM312_breakout:AM312_breakout U2
U 1 1 5F970B29
P 9550 3400
F 0 "U2" H 9323 3446 50  0000 R CNN
F 1 "AM312_breakout" H 9323 3355 50  0000 R CNN
F 2 "AM312_breakout:am312_breakout" H 9550 3150 50  0001 C CNN
F 3 "" H 9550 3400 50  0001 C CNN
	1    9550 3400
	1    0    0    -1  
$EndComp
$Comp
L Connector:Screw_Terminal_01x04 J7
U 1 1 5F4D5F04
P 3700 1700
F 0 "J7" H 3780 1692 50  0000 L CNN
F 1 "Screw_Terminal_01x04" H 3780 1601 50  0000 L CNN
F 2 "KF301-5.0:kf301-5.0-4p_P5.08mm" H 3700 1700 50  0001 C CNN
F 3 "~" H 3700 1700 50  0001 C CNN
	1    3700 1700
	1    0    0    -1  
$EndComp
Wire Wire Line
	3500 1700 3400 1700
Wire Wire Line
	3400 1600 3500 1600
Connection ~ 2050 2000
Wire Wire Line
	1850 1900 2050 1900
Connection ~ 2050 1900
Wire Wire Line
	2050 2000 2050 2100
Wire Wire Line
	2050 2000 2150 2000
Wire Wire Line
	1850 2000 2050 2000
$EndSCHEMATC
